<?xml version="1.0" encoding="UTF-8"?>
<!DOCTYPE svg PUBLIC "-//W3C//DTD SVG 1.1//EN" "http://www.w3.org/Graphics/SVG/1.1/DTD/svg11.dtd">
<!-- Creator: CorelDRAW X7 -->
<svg xmlns="http://www.w3.org/2000/svg" xml:space="preserve" width="2480px" height="3508px" version="1.1" style="shape-rendering:geometricPrecision; text-rendering:geometricPrecision; image-rendering:optimizeQuality; fill-rule:evenodd; clip-rule:evenodd"
viewBox="0 0 2480 3507"
 xmlns:xlink="http://www.w3.org/1999/xlink">
 <defs>
  <style type="text/css">
   <![CDATA[
    .str0 {stroke:#424150;stroke-width:6.2496}
    .fil7 {fill:none}
    .fil16 {fill:#00A2E9}
    .fil17 {fill:#047CB0}
    .fil12 {fill:#332C2B}
    .fil1 {fill:#424150}
    .fil5 {fill:#495057}
    .fil15 {fill:#589F36}
    .fil3 {fill:#A8A8A8}
    .fil9 {fill:#EBB207}
    .fil0 {fill:#F2F2F2}
    .fil13 {fill:#FEFEFE}
    .fil2 {fill:#FFC107}
    .fil19 {fill:#FFC107}
    .fil14 {fill:#FFF000}
    .fil8 {fill:white}
    .fil18 {fill:#424150;fill-rule:nonzero}
    .fil6 {fill:black;fill-opacity:0.101961}
    .fil4 {fill:black;fill-opacity:0.200000}
    .fil10 {fill:#FFC107;fill-opacity:0.400000}
    .fil11 {fill:#FFC107;fill-opacity:0.800000}
   ]]>
  </style>
 </defs>
 <g id="Layer_x0020_1">
  <metadata id="CorelCorpID_0Corel-Layer"/>
  <path class="fil0" d="M1480 2400c286,0 517,-232 517,-517 0,-286 -231,-517 -517,-517 -285,0 -517,231 -517,517 0,285 232,517 517,517z"/>
  <path class="fil0" d="M906 1486c131,0 237,-106 237,-237 0,-131 -106,-237 -237,-237 -130,0 -236,106 -236,237 0,131 106,237 236,237z"/>
  <path class="fil0" d="M660 2320c53,0 96,-44 96,-97 0,-53 -43,-97 -96,-97 -54,0 -97,44 -97,97 0,53 43,97 97,97z"/>
  <path class="fil1" d="M483 1317c0,148 93,267 207,267l-207 -267z"/>
  <path class="fil2" d="M690 1584c0,-149 104,-270 232,-270l-232 270z"/>
  <path class="fil2" d="M558 1330c0,141 59,254 132,254l-132 -254z"/>
  <path class="fil1" d="M690 1584c0,-191 120,-346 268,-346l-268 346z"/>
  <path class="fil3" d="M647 1586c0,0 29,-1 38,-7 9,-6 45,-14 47,-4 3,10 45,51 11,51 -33,0 -77,-5 -86,-11 -8,-5 -10,-29 -10,-29z"/>
  <path class="fil4" d="M744 1622c-33,1 -77,-5 -86,-10 -7,-4 -9,-19 -10,-26 -1,0 -1,0 -1,0 0,0 2,24 10,29 9,6 53,11 86,11 10,0 13,-4 13,-9 -1,3 -5,5 -12,5z"/>
  <path class="fil5" d="M862 2078c197,0 357,-22 357,-49 0,-27 -160,-48 -357,-48 -197,0 -357,21 -357,48 0,27 160,49 357,49z"/>
  <path class="fil6" d="M862 2070c165,0 300,-18 300,-41 0,-22 -135,-41 -300,-41 -166,0 -300,19 -300,41 0,23 134,41 300,41z"/>
  <path class="fil5" d="M1487 2493c167,0 303,-18 303,-40 0,-22 -136,-40 -303,-40 -168,0 -304,18 -304,40 0,22 136,40 304,40z"/>
  <path class="fil5" d="M942 2495c180,0 325,-20 325,-44 0,-24 -145,-44 -325,-44 -179,0 -324,20 -324,44 0,24 145,44 324,44z"/>
  <path class="fil7 str0" d="M1083 2414c96,24 280,-31 300,-94"/>
  <path class="fil7 str0" d="M940 1713c0,0 249,-68 264,153 15,221 -204,284 -33,328"/>
  <path class="fil7 str0" d="M701 2244c0,0 74,-20 79,46 4,67 -62,86 -10,99"/>
  <path class="fil1" d="M1421 2350l-8 53c0,0 -42,22 -12,23 29,1 168,0 168,0 0,0 26,0 -16,-23l-9 -57 -123 4z"/>
  <path class="fil6" d="M1395 2420c6,-6 18,-12 18,-12l8 -49 123 0 9 49c10,5 16,9 19,12 6,-1 12,-6 -19,-21l-9 -53 -123 3 -8 50c0,0 -35,17 -18,21z"/>
  <path class="fil1" d="M1738 1973l-509 0c-10,0 -19,8 -19,19l0 342c0,10 9,19 19,19l509 0c10,0 19,-9 19,-19l0 -342c0,-11 -9,-19 -19,-19z"/>
  <polygon class="fil8" points="1744,1993 1223,1993 1223,2280 1744,2280 "/>
  <path class="fil9" d="M1487 1986c2,0 3,-1 3,-3 0,-2 -1,-4 -3,-4 -2,0 -4,2 -4,4 0,2 2,3 4,3z"/>
  <path class="fil1" d="M1757 2300l0 34c0,2 -1,5 -1,7 -1,2 -3,5 -5,6 -1,2 -4,4 -6,5 -2,1 -5,1 -7,1l-509 0c-2,0 -5,0 -7,-1 -2,-1 -5,-3 -6,-5 -2,-1 -4,-4 -5,-6 -1,-2 -1,-5 -1,-7l0 -34 547 0z"/>
  <polygon class="fil1" points="1624,2461 1624,2466 1283,2466 1283,2462 1284,2461 1292,2440 1617,2440 "/>
  <path class="fil1" d="M1763 2455c0,2 -3,5 -8,8 -20,9 -60,-3 -60,-3 0,0 -31,-5 -31,-18 0,-1 1,-1 2,-2 9,-4 36,-14 85,1 4,1 7,3 10,6 2,2 3,5 2,8z"/>
  <path class="fil6" d="M1763 2454c-25,8 -47,9 -70,-5 -11,-7 -22,-9 -29,-9 8,-4 37,-14 87,1 4,1 7,3 10,5 2,2 3,5 2,8z"/>
  <path class="fil0" d="M1483 2340c8,0 14,-5 14,-10 0,-6 -6,-10 -14,-10 -7,0 -13,4 -13,10 0,5 6,10 13,10z"/>
  <polygon class="fil6" points="1624,2460 1624,2466 1283,2466 1283,2461 1284,2460 "/>
  <polygon class="fil1" points="1087,1523 690,1523 690,1984 1087,1984 "/>
  <polygon class="fil5" points="1127,1477 650,1477 650,1641 1127,1641 "/>
  <polygon class="fil5" points="1127,1671 650,1671 650,1836 1127,1836 "/>
  <polygon class="fil5" points="1127,1866 650,1866 650,2030 1127,2030 "/>
  <polygon class="fil10" points="994,1505 963,1505 963,1536 994,1536 "/>
  <polygon class="fil11" points="1038,1505 1007,1505 1007,1536 1038,1536 "/>
  <polygon class="fil2" points="1082,1505 1051,1505 1051,1536 1082,1536 "/>
  <polygon class="fil10" points="994,1698 963,1698 963,1729 994,1729 "/>
  <polygon class="fil11" points="1038,1698 1007,1698 1007,1729 1038,1729 "/>
  <polygon class="fil2" points="1082,1698 1051,1698 1051,1729 1082,1729 "/>
  <polygon class="fil10" points="994,1891 963,1891 963,1921 994,1921 "/>
  <polygon class="fil11" points="1038,1891 1007,1891 1007,1921 1038,1921 "/>
  <polygon class="fil2" points="1082,1891 1051,1891 1051,1921 1082,1921 "/>
  <path class="fil1" d="M954 2397c83,0 151,-68 151,-151 0,-83 -68,-151 -151,-151 -84,0 -151,68 -151,151 0,83 67,151 151,151z"/>
  <polygon class="fil1" points="931,2364 885,2364 885,2446 931,2446 "/>
  <polygon class="fil1" points="1022,2364 977,2364 977,2446 1022,2446 "/>
  <path class="fil1" d="M923 2462c21,0 38,-7 38,-15 0,-8 -17,-14 -38,-14 -21,0 -38,6 -38,14 0,8 17,15 38,15z"/>
  <path class="fil1" d="M1015 2460c21,0 38,-7 38,-15 0,-8 -17,-14 -38,-14 -21,0 -38,6 -38,14 0,8 17,15 38,15z"/>
  <path class="fil8" d="M958 2259c28,0 51,-23 51,-51 0,-29 -23,-52 -51,-52 -29,0 -52,23 -52,52 0,28 23,51 52,51z"/>
  <path class="fil5" d="M958 2225c9,0 17,-8 17,-17 0,-10 -8,-17 -17,-17 -10,0 -18,7 -18,17 0,9 8,17 18,17z"/>
  <path class="fil2" d="M807 2106c-12,-55 27,-110 87,-123 61,-14 119,19 131,74 13,55 -27,75 -87,88 -61,13 -118,15 -131,-39z"/>
  <path class="fil1" d="M1095 2216c38,-17 65,-40 60,-52 -5,-12 -40,-8 -78,8 -39,17 -66,40 -60,52 5,12 40,8 78,-8z"/>
  <path class="fil1" d="M813 2317c38,-16 65,-39 60,-51 -5,-12 -41,-9 -79,7 -38,17 -65,40 -60,52 5,12 40,8 79,-8z"/>
  <path class="fil8" d="M905 2295c0,10 26,30 55,30 29,0 56,-19 56,-29 0,-10 -27,-7 -56,-7 -29,0 -55,-4 -55,6z"/>
  <g id="_2852444812816">
   <path class="fil12" d="M710 1599c-17,-14 -34,-9 -37,-33 0,-5 0,-9 0,-13 0,-12 1,-25 -3,-31 6,-5 12,-11 18,-16 14,0 29,0 44,0 6,5 12,11 18,16 -5,6 -4,19 -4,31 0,4 1,8 0,13 -2,24 -20,19 -36,33z"/>
   <path class="fil13" d="M710 1598c2,-2 5,-3 7,-5 3,-1 6,-3 8,-4 3,-1 5,-2 7,-3 2,-1 4,-2 6,-4 2,-2 4,-4 5,-6 1,-3 2,-7 3,-10 0,-5 0,-9 0,-13 0,-3 0,-5 -1,-7 0,-3 0,-5 0,-7 1,-3 1,-5 1,-7 0,-3 1,-7 3,-10 -6,-5 -12,-10 -18,-15 -14,0 -29,0 -43,0 -6,5 -12,10 -17,15 1,3 2,7 3,10 0,2 0,4 0,7 0,2 0,4 0,7 0,2 0,4 0,7 0,4 -1,8 0,13 0,3 1,7 2,10 2,2 3,4 5,6 2,2 4,3 6,4 2,1 5,2 7,3 3,1 6,3 8,4 3,2 5,3 8,5z"/>
   <path class="fil12" d="M710 1596c2,-2 4,-3 6,-5 3,-1 6,-2 8,-4 3,-1 5,-2 7,-3 2,-1 4,-2 6,-4 2,-1 3,-3 4,-5 2,-3 2,-6 3,-10 0,-4 0,-8 0,-12 0,-3 0,-5 0,-7 0,-3 0,-5 0,-7 0,-3 0,-5 0,-7 0,-3 1,-7 2,-10 -5,-4 -10,-9 -15,-14 -14,0 -28,0 -42,0 -6,5 -11,10 -16,14 1,3 2,7 2,10 1,2 1,4 1,7 0,2 0,4 0,7 0,2 0,4 0,7 -1,4 -1,8 0,12 0,4 1,7 2,10 1,2 3,4 4,5 2,2 4,3 6,4 2,1 5,2 7,3 3,2 5,3 8,4 2,2 5,3 7,5z"/>
   <path class="fil14" d="M710 1595c2,-1 4,-3 6,-4 3,-2 5,-3 8,-4 2,-1 5,-2 7,-3 2,-1 4,-3 6,-4 1,-2 3,-3 4,-5 1,-3 2,-7 2,-10 0,-4 0,-8 0,-12 0,-3 0,-5 0,-7 0,-3 0,-5 0,-7 0,-3 0,-5 0,-7 1,-3 1,-7 3,-9 -5,-5 -10,-9 -16,-14 -13,0 -27,0 -41,0 -5,5 -10,9 -15,14 1,2 2,6 2,9 0,2 0,4 0,7 0,2 0,4 0,7 0,2 0,4 0,7 0,4 0,8 0,12 1,3 1,7 3,10 1,2 2,3 4,5 1,1 3,3 5,4 3,1 5,2 7,3 3,1 6,2 8,4 2,1 5,3 7,4z"/>
   <path class="fil15" d="M710 1595c2,-1 4,-3 6,-4 3,-2 5,-3 8,-4 2,-1 5,-2 7,-3 2,-1 4,-3 6,-4 1,-2 3,-3 4,-5 1,-3 2,-7 2,-10 0,-4 0,-8 0,-12 0,-3 0,-5 0,-7 0,-3 0,-5 0,-7 0,-1 0,-3 0,-4l-67 0c0,1 0,3 0,4 0,2 0,4 0,7 0,2 0,4 0,7 0,4 0,8 0,12 1,3 1,7 3,10 1,2 2,3 4,5 1,1 3,3 5,4 3,1 5,2 7,3 3,1 6,2 8,4 2,1 5,3 7,4z"/>
   <path class="fil13" d="M738 1579c0,0 0,-1 1,-1l-9 -16 9 0 4 6c0,0 0,-1 0,-1l-3 -5 3 0c0,0 0,0 0,-1l-3 0 -5 -7 8 0 0 -1 -8 0 -6 -10 -1 0 6 10 -9 0 -3 -5 -1 0 3 5 -28 0 3 -5 -1 0 -3 5 -9 0 6 -10 -1 0 -6 10 -9 0 0 1 8 0 -4 7 -4 0c0,1 0,1 0,1l4 0 -3 5c0,1 0,1 0,2l4 -7 9 0 -9 16c0,0 0,1 1,1l56 0zm-9 -17l-38 0 -9 16 56 0 -9 -16zm0 -1l-4 -7 9 0 5 7 -10 0zm-5 -7l4 7 -37 0 5 -7 28 0zm-29 0l-10 0 -4 7 9 0 5 -7z"/>
   <path class="fil16" d="M743 1553c-3,-1 -5,-3 -9,-3 -2,1 -4,2 -8,2 -5,0 -9,-2 -13,-1 -1,1 -2,1 -3,1 -1,0 -3,0 -4,-1 -4,-1 -8,1 -13,1 -4,0 -5,-1 -8,-2 -4,0 -6,1 -9,3l0 0c0,-3 0,-5 0,-7 0,-3 0,-5 0,-7 0,-1 0,-2 0,-2l67 -1c0,1 0,2 0,3 0,2 0,4 0,7 0,2 0,4 0,7l0 0z"/>
   <path class="fil17" d="M743 1538c0,-1 0,-2 0,-3l-47 -16 -3 3 -3 -2 -14 13c0,1 0,3 0,5l67 0z"/>
   <path class="fil13" d="M676 1537l9 0 0 -3 3 0 0 3 9 0 0 -1c0,-1 1,-2 2,-2 1,0 2,1 2,2l0 1 17 0 0 -1c0,-1 1,-2 2,-2 1,0 2,1 2,2l0 1 9 0 0 -3 3 0 0 3 9 0c0,0 0,1 0,1l-67 0c0,0 0,-1 0,-1z"/>
   <path class="fil13" d="M676 1542c3,-1 6,-2 9,-2 1,0 2,0 3,1 2,0 3,1 5,1 2,0 3,-1 5,-1 3,0 5,-1 8,0 0,0 1,0 1,0 1,0 2,1 3,1 0,0 1,0 2,-1 0,0 0,0 1,0 3,-1 5,0 8,0 2,0 3,1 5,1 2,0 3,-1 5,-1 1,-1 2,-1 3,-1 4,0 6,1 9,2 0,1 0,1 0,2 -3,-2 -5,-3 -9,-3 -1,0 -2,0 -3,1 -1,0 -3,1 -5,1 -2,0 -3,-1 -5,-1 -3,0 -5,-1 -8,0 0,0 -1,0 -1,0 -1,0 -2,1 -2,1l-1 0c0,-1 -1,-1 -2,-1 -1,0 -1,0 -1,0 -3,-1 -5,0 -8,0 -2,0 -3,1 -5,1 -2,0 -4,-1 -5,-1 -1,-1 -2,-1 -3,-1 -3,0 -6,1 -9,2 0,0 0,0 0,-1zm67 9l0 -1c-3,-1 -5,-3 -9,-3 -1,0 -2,1 -3,1 -2,1 -3,1 -5,1 -2,0 -3,0 -5,0 -3,-1 -5,-1 -8,-1 -1,1 -1,1 -1,1 -1,0 -2,0 -2,0 -1,0 -2,0 -3,0 0,0 -1,0 -1,-1 -3,0 -5,0 -8,1 -2,0 -3,0 -5,0 -2,0 -3,0 -5,-1 -1,0 -2,-1 -3,-1 -4,0 -6,1 -9,3l0 1c3,-2 5,-3 9,-3 1,0 2,1 3,1 1,1 3,1 5,1 2,0 3,0 5,0 3,-1 5,-1 8,-1 0,0 0,1 1,1 1,0 2,0 2,0l1 0c0,0 1,0 2,0 0,0 1,0 1,-1 3,0 5,0 8,1 2,0 3,0 5,0 2,0 4,0 5,-1 1,0 2,-1 3,-1 4,0 6,2 9,3zm0 -4c0,0 0,-1 0,-1 -3,-2 -5,-3 -9,-3 -1,0 -2,1 -3,1 -2,1 -3,1 -5,1 -2,0 -3,0 -5,0 -3,-1 -5,-1 -8,-1 -1,1 -1,1 -1,1 -1,0 -2,0 -2,0 -1,0 -2,0 -3,0 0,0 -1,-1 -1,-1 -3,0 -5,0 -8,1 -2,0 -3,0 -5,0 -2,0 -3,0 -5,-1 -1,0 -2,-1 -3,-1 -3,0 -6,1 -9,3l0 0c0,0 0,1 0,1 3,-2 6,-3 9,-3 1,0 2,1 3,1 1,1 3,1 5,1 2,0 3,0 5,0 3,-1 5,-1 8,-1 0,0 0,0 1,1 1,0 2,0 2,0l1 0c0,0 1,0 2,0 0,0 1,-1 1,-1 3,0 5,0 8,1 2,0 3,0 5,0 2,0 4,0 5,-1 1,0 2,-1 3,-1 4,0 6,1 9,3z"/>
   <path class="fil12" d="M687 1517l0 -4 1 0 0 2 1 -2 1 0 -1 2 1 2 -1 0 -1 -2 0 1 0 1 -1 0zm6 0l0 0 -1 -1 -1 0 0 1 -1 0 1 -4 1 0 1 4zm-1 -2l0 -1 -1 1 1 0zm2 -2l1 0c0,0 1,0 1,0 0,0 0,0 0,0 0,1 0,1 0,1 0,0 0,0 0,0 0,0 0,0 0,1 0,0 0,0 0,0 0,0 0,0 0,0 1,0 1,1 1,1 0,0 0,0 -1,0 0,0 0,1 0,1 0,0 0,0 0,0 0,0 -1,0 -1,0l-1 0 0 -4zm0 1l0 1 1 0c0,0 0,0 0,0 1,0 1,0 1,0 0,-1 0,-1 0,-1 0,0 0,0 0,0 0,0 0,0 -1,0 0,0 0,0 0,0l-1 0zm0 1l0 1 1 0c0,0 0,0 1,0 0,0 0,0 0,0 0,0 0,0 0,0 0,0 0,0 0,-1 0,0 0,0 0,0 0,0 -1,0 -1,0l-1 0zm3 2l0 -1 1 0 0 1 -1 0zm4 0l0 -3 -1 0 0 -1 2 0 0 1 -1 0 0 3 0 0zm4 0l0 0 -1 -1 -1 0 0 1 -1 0 1 -4 1 0 1 4zm-1 -2l0 -1 -1 1 1 0zm2 1l0 0c0,0 0,0 1,0 0,0 0,0 0,0 0,0 0,0 1,0 0,0 0,0 0,0 0,0 0,0 0,0 0,-1 0,-1 -1,-1 0,0 0,0 0,0 -1,0 -1,0 -1,0 0,0 0,-1 0,-1 0,0 0,0 0,0 0,0 0,-1 0,-1 1,0 1,0 1,0 0,0 1,0 1,0 0,1 0,1 0,1l0 0c0,0 0,0 -1,0 0,0 0,0 0,0 0,0 0,0 0,0 -1,0 -1,0 -1,0 0,0 0,0 1,0 0,0 0,1 0,1 0,0 1,0 1,0 0,0 0,0 0,0 0,0 0,1 0,1 0,0 0,0 0,0 0,1 0,1 0,1 0,0 -1,0 -1,0 0,0 -1,0 -1,0 0,-1 0,-1 0,-1zm3 1l0 -4 1 0 0 4 -1 0zm1 0l0 -4 1 0 0 2 1 -2 1 0 -1 2 1 2 -1 0 0 -2 -1 1 0 1 -1 0zm4 0l0 -4 1 0 0 3 1 -3 1 0 0 4 -1 0 0 -3 0 3 -1 0 -1 -3 0 3 0 0zm7 0l-1 0 0 -1 -2 0 0 1 -1 0 2 -4 0 0 2 4zm-2 -2l0 -1 0 1 0 0zm2 2l0 -4 1 0 0 3 2 0 0 1 -3 0zm6 0l-1 0 0 -1 -1 0 -1 1 0 0 1 -4 1 0 1 4zm-1 -2l-1 -1 0 1 1 0zm2 2l0 -2 -1 -2 1 0 0 2 1 -2 1 0 -1 2 0 2 -1 0zm5 0l-1 0 0 -1 -2 0 0 1 -1 0 2 -4 1 0 1 4zm-1 -2l-1 -1 0 1 1 0z"/>
   <path class="fil12" d="M709 1573c-2,3 -4,3 -5,3 -4,0 -4,-1 -6,-2 1,0 1,0 1,-1 -2,0 -3,-1 -3,-1 0,0 1,0 1,-1 -1,-1 -3,-1 -3,-3 0,0 1,0 1,0 0,-1 -2,-2 -2,-4 1,0 2,0 2,0 -1,-2 -1,-4 0,-5 0,-1 1,-2 2,-2 1,0 2,0 3,0 0,1 0,3 -1,3 -1,0 -1,0 -2,0 0,2 0,3 1,4 0,0 2,2 3,1 3,3 5,4 9,6 0,1 -1,1 -1,2z"/>
   <path class="fil14" d="M699 1574c2,1 4,3 7,2 1,-1 2,-2 3,-3 0,0 0,-1 0,-1 0,0 0,-1 0,-1 -3,-2 -6,-3 -9,-5 0,0 -1,-1 -1,-1 0,0 -1,0 -1,0 0,-1 0,-1 0,-1 -2,-1 -2,-6 -1,-5 0,1 1,1 1,1 2,0 2,-2 1,-3 -1,0 -2,0 -3,1 -2,2 -1,5 0,7 0,0 -1,0 -2,0 1,1 2,2 3,3 -1,0 -1,0 -2,0 1,2 2,3 4,3 -1,1 -1,1 -2,1 1,1 4,1 4,1 0,1 -1,1 -2,1z"/>
   <path class="fil12" d="M709 1568c-4,-6 -8,-3 -12,-5 0,1 0,2 1,3 -1,1 0,3 1,3 0,2 2,3 3,3 1,4 5,0 7,0 0,-2 0,-3 0,-4z"/>
   <path class="fil14" d="M709 1571c0,0 0,-1 0,-2 -1,1 -2,1 -2,1 -1,0 -2,-1 -2,-2 1,-1 2,-1 2,0 0,0 -1,0 -1,0 0,0 0,1 1,1 1,0 2,-1 1,-2 0,0 -1,-1 -1,-1 -3,-3 -6,-1 -10,-3 0,2 1,3 3,3 1,1 2,1 3,0 0,1 -2,1 -3,1 -1,0 -1,0 -2,-1 0,2 1,3 3,3 1,0 1,0 2,0 0,1 -2,1 -2,1 -1,0 -1,0 -1,0 0,1 1,1 2,1 1,0 2,0 3,0 0,1 -2,1 -3,1 0,1 1,1 1,1 1,1 3,0 3,-1 1,0 2,0 3,-1z"/>
   <path class="fil12" d="M710 1573c2,3 4,3 6,3 3,0 3,-1 5,-2 0,0 0,0 -1,-1 2,0 3,-1 3,-1 0,0 0,0 -1,-1 2,-1 3,-1 4,-3 -1,0 -1,0 -2,0 1,-1 2,-2 2,-4 0,0 -1,0 -2,0 1,-2 1,-4 0,-5 0,-1 -1,-2 -2,-2 -1,0 -2,0 -3,0 0,1 0,3 1,3 1,0 1,0 2,0 0,2 0,3 -1,4 0,0 -2,2 -2,1 -4,3 -6,4 -10,6 1,1 1,1 1,2z"/>
   <path class="fil14" d="M720 1574c-1,1 -4,3 -7,2 -1,-1 -2,-2 -3,-3 0,0 0,-1 0,-1 0,0 0,-1 0,-1 3,-2 6,-3 9,-5 0,0 1,-1 1,-1 1,0 1,0 1,0 0,-1 0,-1 0,-1 2,-1 2,-6 1,-5 0,1 -1,1 -1,1 -1,0 -2,-2 0,-3 0,0 1,0 2,1 2,2 1,5 0,7 1,0 1,0 2,0 0,1 -1,2 -2,3 0,0 1,0 1,0 -1,2 -2,3 -4,3 1,1 1,1 2,1 -1,1 -4,1 -4,1 0,1 1,1 2,1z"/>
   <path class="fil12" d="M710 1568c4,-6 8,-3 12,-5 0,1 0,2 -1,3 1,1 0,3 -1,3 0,2 -2,3 -2,3 -2,4 -5,0 -8,0 0,-2 0,-3 0,-4z"/>
   <path class="fil14" d="M711 1571c0,0 0,-1 0,-2 0,1 1,1 1,1 1,0 2,-1 2,-2 0,-1 -1,-1 -2,0 1,0 1,0 1,0 1,0 0,1 -1,1 -1,0 -1,-1 -1,-2 1,0 1,-1 1,-1 3,-3 6,-1 10,-3 0,2 -1,3 -3,3 -1,1 -2,1 -2,0 0,1 2,1 2,1 1,0 2,0 2,-1 0,2 -1,3 -2,3 -1,0 -2,0 -3,0 0,1 2,1 3,1 0,0 0,0 0,0 1,1 -1,1 -2,1 -1,0 -2,0 -2,0 -1,1 2,1 2,1 0,1 -1,1 -1,1 -1,1 -2,0 -3,-1 -1,0 -2,0 -2,-1z"/>
   <path class="fil12" d="M711 1520c-1,1 -2,1 -3,3l0 60 3 0c0,-21 0,-42 0,-63z"/>
   <path class="fil14" d="M711 1521c-1,1 -2,2 -2,2l0 5 2 0 0 -7zm-2 7l0 8 2 0 0 -8 -2 0zm0 8l0 8 2 0 0 -8 -2 0zm0 8l0 8 2 0 0 -8 -2 0zm0 8l0 8 2 0 0 -8 -2 0zm0 8l0 7 2 0 0 -7 -2 0zm0 8l0 7 2 0 0 -7 -2 0zm0 8l0 7 2 0 0 -7 -2 0z"/>
   <path class="fil12" d="M683 1568c3,1 5,3 7,5 -1,2 -1,4 -1,6 -6,2 -4,-5 -10,-7 2,-1 4,-1 5,-1 0,-1 0,-2 -1,-3z"/>
   <path class="fil14" d="M680 1572c2,1 3,2 4,3 0,1 0,2 1,2 0,1 0,1 1,2 1,0 2,0 3,0 0,-2 0,-4 0,-6 -1,-2 -3,-3 -5,-4 1,1 1,1 1,2l0 1 -1 0c-1,-1 -2,0 -4,0z"/>
   <path class="fil12" d="M736 1568c-3,1 -5,3 -6,5 0,2 0,4 0,6 6,2 4,-5 10,-7 -2,-1 -3,-1 -5,-1 0,-1 0,-2 1,-3z"/>
   <path class="fil14" d="M735 1569c-2,1 -4,2 -5,4 0,2 0,4 1,6 0,0 2,0 2,0 1,-1 1,-1 2,-2 0,0 0,-1 1,-2 0,-1 1,-2 3,-3 -1,0 -3,-1 -4,0l-1 0 0 -1c0,-1 1,-1 1,-2z"/>
   <path class="fil12" d="M735 1574c-6,8 -15,14 -25,14 -10,0 -20,-5 -25,-14l-1 -1 1 0c1,-1 3,-2 4,-3l1 0 0 1c4,5 9,10 16,11 3,0 6,0 9,-1 6,-1 11,-5 14,-10l1 -1 0 0c1,1 3,2 4,3l1 0 0 1z"/>
   <path class="fil14" d="M689 1571c-1,1 -3,2 -4,2 5,9 15,15 25,15 10,0 19,-6 24,-15 -1,0 -3,-1 -4,-2 -4,5 -9,9 -15,11 -3,0 -6,1 -9,0 -7,-1 -12,-5 -17,-11z"/>
   <path class="fil12" d="M689 1575l0 0c0,0 0,0 0,1 0,0 0,0 0,0 0,0 0,0 0,0 0,0 0,0 1,0 0,0 0,0 0,0 0,0 0,0 0,0 0,0 0,0 -1,-1 0,0 0,0 0,0 0,0 0,-1 1,-1 0,0 0,0 0,0 0,0 0,0 0,0 0,0 1,0 1,0 0,1 0,1 0,1 0,0 0,0 0,1l-1 -1c0,0 0,0 0,0 0,0 0,0 0,0 0,0 0,0 0,0 0,-1 0,0 0,0 0,0 0,0 0,0 0,0 0,0 0,0 0,0 0,1 0,1 0,0 0,0 0,0 0,0 0,0 0,0 0,0 0,1 -1,1 0,0 0,0 0,0 0,-1 0,-1 0,-1 -1,0 -1,0 -1,0 0,-1 0,-1 1,-1zm2 0l1 1 -1 1c0,0 -1,0 -1,0 0,0 0,0 0,0 0,0 0,0 0,1 1,0 1,0 1,0 0,0 0,0 0,0 0,0 0,-1 0,-1l1 -1 1 1 -1 1c-1,0 -1,0 -1,0 0,0 0,0 0,0 0,0 0,0 0,0 -1,0 -1,0 -1,0 0,0 0,0 0,-1 0,0 0,0 0,0 0,0 0,0 0,0 0,0 0,0 0,-1l1 -1zm0 4l2 -2 0 0 0 1 1 0 1 0 -2 0 0 2 -1 0 1 -1 -1 0 0 0 -1 0zm4 3l-1 -1 1 0 -1 -1 -1 1 0 -1 2 -1 1 0 -1 3zm0 -2l0 -1 -1 1 1 0zm0 2l1 -2 1 0c0,0 0,0 1,0 0,0 0,1 0,1 0,0 0,0 0,0 -1,0 -1,1 -1,1 0,0 0,0 0,0 0,0 0,0 0,0 0,0 -1,0 -1,-1l0 0 -1 1 0 0zm2 -2l-1 1 0 0c1,0 1,0 1,0 0,0 0,0 0,0 0,0 0,0 0,0 0,0 0,0 0,0 0,0 0,0 0,0 0,0 0,-1 0,-1l0 0zm1 1l1 0 -1 1c0,0 0,1 0,1 0,0 0,0 0,0 0,0 0,0 0,0 0,0 0,0 0,0 0,0 0,0 0,0 1,0 1,0 1,0l0 -2 1 1 -1 1c0,0 0,0 0,0 0,0 0,1 0,1 -1,0 -1,0 -1,0 0,0 0,0 0,0 0,-1 -1,-1 -1,-1 0,0 0,0 0,0 0,0 0,0 0,0 0,-1 0,-1 0,-1l1 -1zm1 3l1 -2 1 0c0,0 0,0 0,0 1,0 1,1 1,1 0,0 0,0 0,0 -1,0 -1,0 -1,0 0,1 0,1 0,1 0,0 0,0 0,0 0,0 0,0 0,0l0 1 -1 0 0 -1c0,0 0,0 0,0 0,0 0,-1 0,-1 0,0 0,0 0,0l0 0 -1 1 0 0zm1 -1l0 0c1,0 1,0 1,0 0,0 0,0 0,0 0,0 0,0 0,0 0,0 0,0 0,0 0,0 0,0 0,0 0,0 0,-1 0,-1l-1 0 0 1zm3 3l0 -1 0 0 -1 0 -1 0 0 0 2 -2 0 0 0 3zm0 -2l0 -1 -1 1 1 0zm1 2l1 -3 0 0 1 2 0 -2 1 1 -1 2 0 0 -1 -2 0 2 -1 0zm4 -1l0 0 1 0 0 1c0,0 0,0 -1,0 0,0 0,0 0,0 0,0 -1,0 -1,0 0,0 0,0 0,0 0,-1 0,-1 0,-1 0,0 0,-1 0,-1 0,0 0,0 0,0 1,0 1,0 1,0 0,0 1,0 1,0 0,0 0,0 0,1l0 0c-1,-1 -1,-1 -1,-1 0,0 0,0 0,0 0,0 0,0 0,0 -1,0 -1,1 -1,1 0,0 0,0 0,1 0,0 1,0 1,0 0,0 0,0 0,0 0,0 0,0 0,0l0 -1 0 0zm3 1l0 0 0 0 -1 0 0 0 -1 0 1 -2 0 0 1 2zm0 -1l-1 -1 0 1 1 0zm0 -1l1 0c0,-1 1,-1 1,0 0,0 0,0 0,0 0,0 0,0 0,0 0,0 0,0 1,1 0,0 0,0 0,0 0,0 -1,1 -1,1 0,0 0,0 0,0 0,0 0,0 0,0l-1 0 -1 -2zm1 0l0 2 1 0c0,0 0,0 0,0 0,0 0,0 0,0 0,-1 0,-1 0,-1 0,0 0,0 0,0 0,0 0,-1 0,-1 0,0 0,0 0,0 0,0 0,0 0,0 -1,0 -1,0 -1,0l0 0zm4 1l0 1 -1 -1 -1 0 0 1 0 0 0 -3 1 0 1 2zm-1 0l0 -1 -1 1 1 0zm1 -2l0 0 0 1c1,0 1,0 1,1 0,0 0,0 0,0 0,0 0,0 0,0 0,0 0,0 0,0 1,-1 1,-1 1,-1 0,0 -1,0 -1,0l0 -2 0 0 1 2c0,0 0,0 0,0 0,0 0,1 0,1 0,0 0,0 0,0 0,0 0,0 -1,0 0,0 0,0 0,0 0,0 0,0 0,0 -1,0 -1,0 -1,0 0,0 0,0 0,-1l0 -1zm3 2l-1 -3 0 0 2 1 -1 -1 0 -1 1 3 0 0 -2 -1 1 1 0 1zm3 -2l-2 -2 1 0 2 1 -1 -2 0 0 1 2 0 0 -2 -1 1 2 0 0zm2 -3l0 0 1 -1 0 1c0,0 0,1 0,1 0,0 0,0 0,0 0,0 -1,0 -1,1 0,0 0,-1 0,-1 -1,0 -1,0 -1,0 0,0 0,-1 0,-1 0,0 0,0 0,0 0,-1 0,-1 0,-1 0,0 1,0 1,0 0,0 0,0 0,0l0 0c0,0 0,0 0,0 0,0 -1,0 -1,0 0,1 0,1 0,1 0,0 0,0 0,1 1,0 1,0 1,0 0,0 0,0 0,0 1,0 1,0 1,0 0,0 0,0 0,-1l0 0 -1 0zm1 -1c0,0 0,0 0,0 0,0 0,0 0,-1 0,0 0,0 0,0 0,0 0,0 0,0 0,-1 0,-1 1,-1 0,0 0,1 1,1 0,0 0,1 0,1 0,0 0,0 0,1 -1,0 -1,0 -1,0 0,0 -1,0 -1,-1zm0 0c1,0 1,0 1,0 0,1 0,0 0,0 1,0 1,0 1,0 0,0 0,-1 -1,-1 0,0 0,0 0,0 0,0 -1,0 -1,0 0,0 0,0 0,0 0,1 0,1 0,1zm3 0l-2 -2 1 -1c0,0 0,0 0,0 0,0 0,0 0,0 1,0 1,0 1,0 0,0 0,0 0,0 0,1 0,1 0,1 0,0 0,0 0,0 0,0 1,0 1,0l0 0 0 1 -1 -1c0,0 0,0 0,0 0,0 0,0 0,0 0,0 0,0 -1,0l0 1 1 0 0 1zm-1 -2l0 0c0,0 1,0 1,0 0,0 0,0 0,-1 0,0 0,0 0,0 -1,0 -1,0 -1,0 0,0 0,0 0,0 0,0 0,0 0,1l0 0 0 0zm4 -2l0 1 -1 0 -1 0 1 1 -1 0 -1 -2 0 -1 3 1zm-1 0l-1 0 0 1 1 -1z"/>
  </g>
  <path class="fil18" d="M1377 2211l4 0 0 10 5 -10 3 0 -4 9 4 14 -4 0 -3 -10 -1 3 0 7 -4 0 0 -23 0 0zm18 0l6 0 4 23 -4 0 -1 -4 0 0 -4 0 -1 4 -4 0 4 -23zm5 16l-2 -11 0 0 -2 11 4 0 0 0zm8 -16l5 0c2,0 4,1 5,2 1,1 1,2 1,4l0 1c0,1 0,2 -1,3 0,0 -1,1 -1,1l0 0c1,1 3,2 3,5l0 2c0,1 -1,3 -2,4 -1,1 -2,1 -4,1l-6 0 0 -23zm5 10c1,0 1,0 2,-1 0,0 0,-1 0,-2l0 -1c0,-1 0,-1 0,-2 -1,0 -1,0 -2,0l-2 0 0 6 2 0 0 0zm1 10c0,0 1,0 1,-1 0,0 1,0 1,-1l0 -2c0,-1 -1,-2 -1,-2 0,-1 -1,-1 -2,-1l-2 0 0 7 3 0 0 0zm9 0l4 0 0 3 -4 0 0 -3zm17 -16l-4 0 0 -4 12 0 0 4 -4 0 0 19 -4 0 0 -19zm13 -4l5 0 4 23 -4 0 -1 -4 0 0 -4 0 -1 4 -3 0 4 -23zm4 16l-2 -11 0 0 -2 11 4 0 0 0zm13 7c-2,0 -4,0 -4,-1 -1,-1 -2,-2 -2,-4l0 -2 4 0 0 2c0,1 0,2 2,2 0,0 1,0 1,0 1,-1 1,-1 1,-2 0,-1 -1,-2 -1,-2 0,-1 -1,-2 -3,-3 -1,-2 -2,-3 -3,-4 0,-1 -1,-2 -1,-3 0,-2 1,-3 2,-4 1,-1 2,-2 4,-2 2,0 3,1 4,2 1,1 2,2 2,4l0 1 -4 0 0 -1c0,-1 0,-2 -1,-2 0,0 0,-1 -1,-1 -1,0 -2,1 -2,3 0,0 0,1 1,2 0,1 1,2 2,2 2,2 3,3 4,4 0,1 1,2 1,4 0,1 -1,3 -2,4 -1,1 -2,1 -4,1l0 0zm9 -23l4 0 0 23 -4 0 0 -23zm8 0l4 0 0 10 5 -10 3 0 -4 9 4 14 -3 0 -4 -10 -1 3 0 7 -4 0 0 -23 0 0zm15 0l6 0 2 17 0 0 3 -17 5 0 0 23 -3 0 0 -17 0 0 -3 17 -3 0 -3 -17 0 0 0 17 -4 0 0 -23zm23 0l6 0 4 23 -4 0 -1 -4 0 0 -4 0 -1 4 -4 0 4 -23 0 0zm5 16l-2 -11 0 0 -2 11 4 0 0 0zm8 -16l4 0 0 20 6 0 0 3 -10 0 0 -23zm16 0l5 0 4 23 -4 0 0 -4 0 0 -5 0 0 4 -4 0 4 -23 0 0zm4 16l-2 -11 0 0 -1 11 3 0 0 0zm10 -3l-4 -13 4 0 2 9 0 0 3 -9 4 0 -5 13 0 10 -4 0 0 -10zm13 -13l5 0 4 23 -4 0 -1 -4 0 0 -4 0 0 4 -4 0 4 -23zm4 16l-2 -11 0 0 -1 11 3 0 0 0z"/>
  <g id="_2852444808368">
   <g>
    <path class="fil9" d="M1344 2143l0 -17 49 -72 25 0 0 70 14 0 0 19 -14 0 0 21 -21 0 0 -21 -53 0zm54 -66l-31 47 31 0 0 -47z"/>
    <path class="fil9" d="M1445 2107c0,-17 3,-31 10,-41 6,-10 16,-15 31,-15 15,0 25,5 32,15 6,10 9,24 9,41 0,18 -3,32 -9,42 -7,10 -17,15 -32,15 -15,0 -25,-5 -31,-15 -7,-10 -10,-24 -10,-42zm61 0c0,-7 0,-14 -1,-19 -1,-5 -3,-9 -6,-12 -3,-4 -7,-5 -13,-5 -6,0 -10,1 -13,5 -3,3 -5,7 -6,12 0,5 -1,12 -1,19 0,8 1,15 1,20 1,5 3,9 6,12 3,4 7,5 13,5 6,0 10,-1 13,-5 3,-3 5,-7 6,-12 1,-5 1,-12 1,-20z"/>
    <path class="fil9" d="M1543 2143l0 -17 49 -72 25 0 0 70 13 0 0 19 -13 0 0 21 -21 0 0 -21 -53 0zm54 -66l-31 47 31 0 0 -47z"/>
   </g>
   <g>
    <path class="fil19" d="M1336 2138l0 -16 50 -72 25 0 0 70 13 0 0 18 -13 0 0 22 -21 0 0 -22 -54 0zm55 -65l-31 47 31 0 0 -47z"/>
    <path class="fil19" d="M1438 2103c0,-18 3,-31 9,-41 7,-10 17,-15 32,-15 15,0 25,5 32,15 6,10 9,23 9,41 0,18 -3,32 -9,42 -7,10 -17,15 -32,15 -15,0 -25,-5 -32,-15 -6,-10 -9,-24 -9,-42zm61 0c0,-8 0,-14 -1,-19 -1,-5 -3,-9 -6,-13 -3,-3 -7,-4 -13,-4 -6,0 -10,1 -13,4 -3,4 -5,8 -6,13 -1,5 -1,11 -1,19 0,8 0,14 1,20 1,5 3,9 6,12 3,3 7,5 13,5 6,0 10,-2 13,-5 3,-3 5,-7 6,-12 1,-6 1,-12 1,-20z"/>
    <path class="fil19" d="M1535 2138l0 -16 50 -72 25 0 0 70 13 0 0 18 -13 0 0 22 -21 0 0 -22 -54 0zm55 -65l-31 47 31 0 0 -47z"/>
   </g>
  </g>
  <g id="_2852444802096">
   <path class="fil12" d="M1626 1891c-122,-108 -255,-73 -273,-252 -3,-32 -2,-65 -1,-98 2,-86 8,-187 -25,-230 45,-40 90,-80 135,-120 110,0 219,0 329,0 45,40 90,80 135,120 -33,43 -27,144 -25,230 1,33 2,66 -1,98 -18,179 -151,144 -274,252z"/>
   <path class="fil13" d="M1626 1884c18,-15 38,-28 58,-40 19,-11 39,-20 58,-29 18,-8 36,-16 53,-25 16,-8 31,-17 45,-29 15,-13 27,-28 36,-47 11,-23 17,-50 19,-75 3,-32 2,-65 1,-97 0,-17 -1,-34 -1,-51 -1,-18 -1,-36 0,-54 0,-17 1,-34 3,-51 2,-24 8,-53 22,-74 -43,-39 -87,-78 -131,-116 -108,0 -217,0 -325,0 -44,38 -88,77 -131,116 14,21 20,50 22,74 2,17 3,34 3,51 1,18 1,36 0,54 0,17 -1,34 -1,51 -1,32 -2,65 1,97 2,25 8,52 19,75 9,19 21,34 36,47 14,12 29,21 45,29 17,9 35,17 53,25 19,9 39,18 58,29 20,12 40,25 57,40z"/>
   <path class="fil12" d="M1626 1866c16,-13 33,-24 51,-34 19,-11 39,-21 60,-30 17,-8 35,-16 52,-25 15,-7 30,-16 42,-27 14,-12 25,-26 33,-42 10,-22 15,-47 17,-71 4,-32 2,-63 1,-95 0,-17 -1,-34 -1,-51 0,-18 -1,-36 0,-54 0,-18 1,-35 3,-52 3,-23 7,-49 18,-70 -39,-35 -79,-70 -118,-105 -105,0 -210,0 -315,0 -39,35 -79,70 -118,105 11,21 15,47 18,70 2,17 3,34 3,52 1,18 0,36 0,54 0,17 -1,34 -1,51 -1,32 -3,63 1,95 2,24 7,49 17,71 8,16 19,30 33,42 12,11 27,20 42,27 17,9 35,17 52,25 21,9 41,19 60,30 18,10 35,21 50,34z"/>
   <path class="fil14" d="M1626 1860c16,-12 32,-23 49,-32 19,-12 39,-22 60,-31 17,-7 35,-15 52,-24 15,-8 29,-16 41,-26 13,-12 24,-25 31,-41 11,-22 15,-46 18,-70 3,-31 2,-62 1,-94 -1,-17 -1,-34 -2,-51 0,-18 0,-36 0,-54 0,-18 1,-35 3,-53 3,-23 8,-47 17,-68 -38,-34 -76,-68 -114,-101 -104,0 -207,0 -311,0 -38,33 -76,67 -114,101 9,21 14,45 17,68 2,18 3,35 3,53 0,18 0,36 0,54 -1,17 -1,34 -2,51 -1,32 -2,63 1,94 3,24 7,48 18,70 7,16 17,29 31,41 12,10 26,18 41,26 17,9 35,17 52,24 21,9 41,19 60,31 17,9 33,20 48,32z"/>
   <path class="fil15" d="M1626 1860c16,-12 32,-23 49,-32 19,-12 39,-22 60,-31 17,-7 35,-15 52,-24 15,-8 29,-16 41,-26 13,-12 24,-25 31,-41 11,-22 15,-46 18,-70 3,-31 2,-62 1,-94 -1,-17 -1,-34 -2,-51 0,-18 0,-36 0,-54 0,-9 1,-17 1,-25l-501 0c0,8 1,16 1,25 0,18 0,36 0,54 -1,17 -1,34 -2,51 -1,32 -2,63 1,94 3,24 7,48 18,70 7,16 17,29 31,41 12,10 26,18 41,26 17,9 35,17 52,24 21,9 41,19 60,31 17,9 33,20 48,32z"/>
   <path class="fil13" d="M1836 1739c4,-4 6,-7 9,-10l-68 -116 70 0 27 45c0,-3 1,-7 1,-10l-20 -35 23 0c0,-2 0,-5 1,-6l-28 0 -32 -56 59 0 0 -6 -63 0 -45 -77 -5 3 43 74 -70 0 -23 -38 -5 3 20 35 -205 0 21 -35 -6 -3 -22 38 -70 0 43 -74 -5 -3 -45 77 -66 0 0 6 62 0 -32 56 -31 0c1,1 1,4 1,6l26 0 -23 39c1,3 1,6 2,9l28 -48 71 0 -69 118c2,3 4,5 7,8l419 0zm-66 -126l-284 0 -69 119 422 0 -69 -119zm3 -6l-32 -56 70 0 32 56 -70 0zm-39 -56l32 56 -276 0 32 -56 212 0zm-219 0l-71 0 -32 56 71 0 32 -56z"/>
   <path class="fil16" d="M1878 1546c-21,-12 -41,-24 -67,-22 -21,2 -36,15 -64,15 -32,-1 -62,-15 -95,-7 -10,3 -18,6 -27,7 -7,-3 -19,-5 -27,-7 -32,-8 -62,6 -95,7 -28,0 -42,-13 -64,-15 -24,-2 -44,9 -64,20l0 -2c1,-17 1,-34 2,-51 0,-18 0,-36 0,-54 0,-5 0,-11 -1,-16l501 -6c-1,7 -1,15 -1,22 0,18 0,36 0,54 1,17 1,34 2,51l0 4z"/>
   <path class="fil17" d="M1876 1430c0,-8 1,-16 1,-24l-354 -113 -22 18 -19 -11 -108 91c2,13 2,25 3,37l499 2z"/>
   <path class="fil13" d="M1376 1423l64 0 0 -19 27 0 0 19 67 0 0 -5c0,-8 6,-14 14,-14 7,0 14,6 14,14l0 5 128 0 0 -5c0,-8 6,-14 14,-14 7,0 14,6 14,14l0 5 67 0 0 -19 27 0 0 19 65 0c-1,3 -1,6 -1,9l-499 0c0,-3 0,-6 -1,-9z"/>
   <path class="fil13" d="M1377 1464c19,-11 38,-20 63,-18 9,0 17,3 26,6 11,4 22,8 37,8 12,0 24,-2 35,-4 20,-4 40,-7 61,-2 2,1 5,1 7,1 7,2 14,3 20,6 4,-1 9,-3 14,-4 4,-1 7,-2 11,-3 21,-5 41,-2 61,2 12,2 24,4 35,4 15,0 27,-4 37,-8 9,-3 17,-6 27,-6 25,-2 45,8 65,19 0,3 0,6 0,9 -21,-12 -40,-23 -65,-21 -9,0 -17,3 -24,6 -12,4 -23,8 -40,8 -12,0 -24,-2 -36,-4 -19,-3 -39,-7 -58,-2 -4,1 -8,2 -11,3 -6,1 -11,3 -16,4l-2 0c-5,-3 -13,-4 -19,-5 -3,-1 -5,-2 -7,-2 -20,-5 -39,-1 -58,2 -13,2 -25,4 -37,4 -16,0 -28,-4 -39,-8 -8,-3 -16,-6 -25,-6 -24,-2 -43,8 -62,19 0,-2 0,-5 0,-8zm500 67l0 -9c-20,-11 -41,-22 -66,-20 -10,1 -18,3 -27,6 -10,4 -22,8 -37,8 -11,0 -23,-2 -35,-4 -20,-4 -40,-7 -61,-2 -4,1 -7,2 -11,3 -5,1 -10,3 -14,4 -6,-3 -13,-4 -20,-5 -2,-1 -5,-1 -7,-2 -21,-5 -41,-2 -61,2 -11,2 -23,4 -35,4 -15,0 -26,-4 -37,-8 -9,-3 -17,-5 -26,-6 -25,-2 -44,8 -64,19l0 8c20,-11 39,-21 63,-20 9,0 17,3 25,6 11,4 23,8 39,8 12,0 24,-2 37,-4 19,-3 38,-7 58,-2 2,1 4,1 7,2 6,1 14,2 19,5l2 0c5,-1 10,-2 16,-4 3,-1 7,-2 11,-3 19,-5 39,-1 58,2 12,2 24,4 36,4 17,0 28,-4 40,-8 7,-3 15,-6 24,-6 25,-2 46,10 66,22zm0 -31c0,-3 -1,-6 -1,-9 -20,-11 -40,-21 -65,-20 -10,1 -18,4 -27,7 -10,4 -22,8 -37,8 -11,0 -23,-2 -35,-5 -20,-3 -40,-6 -61,-1 -4,1 -7,2 -11,3 -5,1 -10,3 -14,3 -6,-2 -13,-3 -20,-5 -2,0 -5,-1 -7,-1 -21,-5 -41,-2 -61,1 -11,3 -23,5 -35,5 -15,0 -26,-4 -37,-8 -9,-3 -17,-6 -26,-7 -25,-1 -44,8 -63,19l0 1c0,3 -1,5 -1,7 20,-11 39,-21 63,-19 9,0 17,3 25,6 11,4 23,8 39,8 12,0 24,-2 37,-4 19,-4 38,-7 58,-2 2,0 4,1 7,1 6,1 14,3 19,6l2 0c5,-1 10,-3 16,-4 3,-1 7,-2 11,-3 19,-5 39,-2 58,2 12,2 24,4 36,4 17,0 28,-4 40,-8 7,-3 15,-6 24,-6 25,-2 45,9 66,21z"/>
   <path class="fil12" d="M1455 1273l0 -26 6 0 0 11 10 -11 7 0 -10 10 10 16 -6 0 -7 -13 -4 5 0 8 -6 0zm49 0l-6 0 -2 -6 -10 0 -2 6 -5 0 10 -26 5 0 10 26zm-10 -11l-3 -9 -3 9 6 0zm13 -15l10 0c2,0 4,0 5,0 1,0 1,0 2,1 1,0 2,1 2,2 1,1 1,2 1,3 0,1 0,2 -1,4 -1,1 -1,1 -3,2 2,0 3,1 4,2 1,1 1,3 1,4 0,2 0,3 -1,4 0,1 -1,2 -2,3 -1,0 -2,1 -3,1 -1,0 -3,0 -7,0l-8 0 0 -26zm5 4l0 6 3 0c2,0 4,0 4,0 1,0 2,0 2,-1 1,-1 1,-1 1,-2 0,-1 0,-2 -1,-2 0,0 -1,-1 -2,-1 0,0 -2,0 -4,0l-3 0zm0 10l0 7 5 0c2,0 3,0 3,0 1,0 2,0 2,-1 1,0 1,-1 1,-2 0,-1 0,-2 0,-2 -1,-1 -2,-1 -2,-1 -1,0 -2,-1 -5,-1l-4 0zm20 12l0 -5 6 0 0 5 -6 0zm26 0l0 -22 -7 0 0 -4 20 0 0 4 -8 0 0 22 -5 0zm36 0l-5 0 -2 -6 -10 0 -3 6 -5 0 10 -26 6 0 9 26zm-9 -11l-3 -9 -4 9 7 0zm11 2l5 0c0,1 1,3 2,4 1,0 2,1 4,1 1,0 3,-1 3,-1 1,-1 1,-2 1,-3 0,0 0,-1 0,-2 0,0 -1,0 -2,-1 0,0 -2,0 -4,-1 -3,0 -5,-1 -6,-2 -1,-2 -2,-4 -2,-6 0,-1 0,-2 1,-3 1,-2 2,-2 3,-3 2,-1 3,-1 5,-1 4,0 6,1 7,2 2,2 3,4 3,6l-5 0c0,-1 -1,-2 -1,-3 -1,0 -2,-1 -4,-1 -1,0 -2,1 -3,2 -1,0 -1,0 -1,1 0,0 0,1 1,2 0,0 2,1 5,2 2,0 4,1 5,1 1,1 2,2 3,3 1,1 1,2 1,4 0,2 0,3 -2,5 0,1 -2,2 -3,2 -1,1 -3,1 -5,1 -4,0 -6,0 -8,-2 -2,-1 -3,-4 -3,-7zm25 9l0 -26 5 0 0 26 -5 0zm10 0l0 -26 5 0 0 11 11 -11 7 0 -10 10 10 16 -7 0 -6 -13 -5 5 0 8 -5 0zm26 0l0 -26 7 0 5 18 5 -18 7 0 0 26 -4 0 0 -21 -5 21 -5 0 -5 -21 0 21 -5 0zm52 0l-5 0 -2 -6 -10 0 -3 6 -5 0 10 -26 6 0 9 26zm-9 -11l-4 -9 -3 9 7 0zm13 11l0 -26 5 0 0 21 12 0 0 5 -17 0zm44 0l-5 0 -3 -6 -10 0 -2 6 -5 0 10 -26 5 0 10 26zm-9 -11l-4 -9 -3 9 7 0zm15 11l0 -11 -9 -15 6 0 6 10 6 -10 6 0 -9 15 0 11 -6 0zm37 0l-5 0 -3 -6 -10 0 -2 6 -5 0 10 -26 5 0 10 26zm-9 -11l-4 -9 -3 9 7 0z"/>
   <path class="fil12" d="M1624 1696c-17,19 -30,24 -44,23 -24,0 -28,-10 -41,-18 4,-2 5,-2 9,-4 -16,0 -21,-7 -26,-11 4,-2 7,-3 10,-5 -11,-6 -22,-12 -27,-24 7,0 8,1 14,0 -6,-8 -14,-17 -17,-28 5,1 11,1 15,1 -7,-21 -7,-35 -2,-44 4,-6 12,-11 19,-13 8,-2 15,0 18,4 4,7 1,19 -6,22 -4,1 -8,0 -14,-2 -2,13 0,25 6,29 2,1 17,13 20,11 28,18 41,24 70,41 -2,8 -3,10 -4,18z"/>
   <path class="fil14" d="M1549 1701c9,11 30,22 51,12 8,-4 15,-11 21,-19 0,-2 1,-5 2,-8 1,-2 1,-4 2,-6 -23,-14 -46,-26 -68,-40 -4,0 -9,-4 -11,-5 -2,-2 -4,-3 -6,-4 -1,-1 -2,-2 -3,-3 -13,-8 -11,-43 -4,-41 1,6 5,8 9,8 9,-2 12,-15 1,-17 -5,-2 -13,-1 -17,4 -14,14 -9,38 -1,54 -4,1 -10,-1 -15,-1 3,9 10,17 18,24 -5,1 -7,1 -13,0 8,14 18,17 30,22 -4,2 -6,3 -12,5 8,9 27,8 29,8 -2,5 -6,6 -13,7z"/>
   <path class="fil12" d="M1620 1654c-26,-44 -56,-18 -88,-38 -2,9 0,20 5,27 -3,6 3,18 12,24 -2,12 11,18 16,19 14,31 39,2 57,-2 -1,-9 -1,-21 -2,-30z"/>
   <path class="fil14" d="M1619 1682c0,-6 -1,-11 -1,-17 -4,4 -8,6 -12,6 -6,0 -12,-6 -11,-13 1,-5 9,-9 11,-4 -2,-1 -4,0 -6,1 -4,5 0,12 6,12 9,0 12,-11 7,-17 -2,-4 -3,-5 -5,-7 -22,-23 -46,-8 -74,-22 0,15 6,21 19,24 7,1 14,1 20,0 1,5 -15,4 -20,3 -5,0 -9,-2 -13,-4 -2,9 8,21 19,22 7,1 13,1 19,0 1,5 -15,4 -20,3 -2,0 -4,-1 -6,-1 -1,10 8,14 16,14 8,0 14,-1 20,-3 2,4 -14,7 -20,7 3,5 6,10 12,11 7,1 16,-4 22,-7 5,-3 11,-7 17,-8z"/>
   <path class="fil12" d="M1628 1696c17,19 30,24 44,23 23,0 28,-10 41,-18 -4,-2 -5,-2 -9,-4 16,0 21,-7 26,-11 -4,-2 -7,-3 -11,-5 12,-6 23,-12 28,-24 -7,0 -9,1 -14,0 6,-8 14,-17 16,-28 -4,1 -10,1 -14,1 7,-21 7,-35 1,-44 -4,-6 -11,-11 -18,-13 -8,-2 -15,0 -18,4 -4,7 -1,19 6,22 4,1 8,0 13,-2 2,13 0,25 -6,29 -1,1 -16,13 -19,11 -28,18 -41,24 -70,41 1,8 3,10 4,18z"/>
   <path class="fil14" d="M1703 1701c-9,11 -31,22 -51,12 -8,-4 -15,-11 -21,-19 -1,-2 -1,-5 -2,-8 -1,-2 -1,-4 -2,-6 22,-14 45,-26 68,-40 3,0 9,-4 11,-5 2,-2 4,-3 6,-4 1,-1 2,-2 3,-3 13,-8 11,-43 4,-41 -1,6 -5,8 -9,8 -9,-2 -12,-15 -2,-17 6,-2 13,-1 18,4 14,14 9,38 0,54 5,1 11,-1 16,-1 -4,9 -10,17 -18,24 5,1 7,1 13,0 -8,14 -18,17 -30,22 4,2 6,3 12,5 -8,9 -27,8 -29,8 1,5 6,6 13,7z"/>
   <path class="fil12" d="M1632 1654c26,-44 56,-18 88,-38 2,9 -1,20 -5,27 2,6 -3,18 -13,24 3,12 -10,18 -15,19 -14,31 -39,2 -57,-2 1,-9 1,-21 2,-30z"/>
   <path class="fil14" d="M1633 1682c0,-6 1,-11 1,-17 4,4 8,6 12,6 6,0 12,-6 11,-13 -1,-5 -9,-9 -11,-4 2,-1 4,0 5,1 4,5 1,12 -5,12 -9,0 -12,-11 -8,-17 2,-4 4,-5 6,-7 22,-23 46,-8 74,-22 -1,15 -6,21 -20,24 -6,1 -13,1 -19,0 -1,5 15,4 20,3 5,0 9,-2 13,-4 2,9 -8,21 -19,22 -7,1 -14,1 -19,0 -1,5 15,4 20,3 2,0 4,-1 6,-1 1,10 -9,14 -17,14 -7,0 -13,-1 -19,-3 -2,4 14,7 19,7 -2,5 -6,10 -11,11 -7,1 -16,-4 -22,-7 -5,-3 -11,-7 -17,-8z"/>
   <path class="fil12" d="M1636 1298c-10,3 -17,9 -20,19l0 455 20 0c0,-158 0,-316 0,-474z"/>
   <path class="fil14" d="M1633 1306c-4,5 -8,10 -14,13l0 38 14 0 0 -51zm-14 54l0 56 14 0 0 -56 -14 0zm0 59l0 56 14 0 0 -56 -14 0zm0 59l0 56 14 0 0 -56 -14 0zm0 59l0 56 14 0 0 -56 -14 0zm0 60l0 55 14 0 0 -55 -14 0zm0 59l0 55 14 0 0 -55 -14 0zm0 59l0 53 14 0 0 -53 -14 0z"/>
   <path class="fil12" d="M1429 1657c22,7 35,23 48,38 -2,16 -4,31 -5,46 -45,16 -29,-42 -72,-53 11,-8 24,-9 37,-6 0,-11 -4,-19 -8,-25z"/>
   <path class="fil14" d="M1406 1687c12,5 19,13 26,25 2,5 4,10 7,15 3,4 5,8 8,11 7,4 15,3 22,1 1,-14 3,-29 5,-43 -12,-14 -23,-26 -38,-33 2,6 4,12 4,19l0 4 -4 0c-10,-4 -20,-3 -30,1z"/>
   <path class="fil12" d="M1823 1657c-22,7 -35,23 -48,38 2,16 4,31 5,46 45,16 29,-42 72,-53 -11,-8 -24,-9 -37,-6 0,-11 4,-19 8,-25z"/>
   <path class="fil14" d="M1816 1663c-16,7 -26,19 -38,33 1,14 3,29 5,43 7,2 15,3 21,-1 4,-3 6,-7 9,-11 2,-5 5,-10 7,-15 6,-12 14,-20 25,-25 -9,-4 -19,-5 -29,-1l-4 0 0 -4c0,-7 1,-13 4,-19z"/>
   <path class="fil12" d="M1813 1699c-41,65 -107,109 -183,109 -78,1 -149,-42 -191,-109l-1 -3 2 -1c11,-7 22,-13 34,-20l2 -1 1 2c30,42 72,76 124,84 21,3 43,2 63,-3 46,-11 83,-43 111,-81l1 -2 2 1c11,7 23,13 34,20l2 1 -1 3z"/>
   <path class="fil14" d="M1475 1678c-11,6 -22,13 -33,19 41,67 111,109 188,108 75,0 140,-43 180,-108 -11,-6 -22,-13 -33,-19 -28,39 -66,70 -112,82 -21,5 -43,6 -65,3 -52,-8 -94,-43 -125,-85z"/>
   <path class="fil12" d="M1469 1708l3 3c-2,1 -2,1 -2,2 0,1 0,2 1,3 1,1 1,1 2,1 1,0 2,0 3,0 0,0 0,-1 0,-1 0,-1 0,-1 0,-2 0,0 0,-1 -1,-2 -1,-2 -1,-4 -1,-5 0,-1 0,-3 2,-4 0,0 1,-1 2,-1 1,0 2,0 3,0 1,1 2,2 3,3 2,1 2,3 2,5 0,1 -1,2 -2,4l-3 -3c1,0 2,-1 2,-2 0,-1 -1,-2 -2,-2 0,-1 -1,-1 -2,-1 0,-1 0,0 -1,0 0,0 -1,0 -1,1 0,0 1,2 2,3 0,2 1,3 1,4 0,1 0,2 0,3 -1,1 -1,2 -2,3 -1,0 -2,1 -3,1 -1,0 -3,0 -4,-1 -1,0 -2,-1 -3,-2 -1,-2 -2,-3 -2,-5 0,-2 1,-3 3,-5zm21 4l2 2 -8 8c-1,1 -2,2 -2,2 -1,1 -1,1 -1,2 0,1 1,2 2,3 0,0 1,0 2,1 0,0 1,-1 2,-1 0,0 1,-1 2,-2l8 -8 3 3 -8 7c-2,1 -3,3 -4,3 -1,1 -1,1 -3,1 0,0 -1,0 -2,0 -1,-1 -2,-1 -3,-2 -1,-1 -2,-2 -2,-3 -1,-1 -1,-2 -1,-3 1,-1 1,-2 2,-2 0,-1 1,-3 3,-4l8 -7zm-2 26l14 -15 2 3 -6 6 12 -2 3 4 -10 1 -3 14 -4 -3 3 -11 -4 1 -4 4 -3 -2zm26 22l-3 -3 2 -4 -6 -5 -4 3 -3 -2 18 -12 3 2 -7 21zm0 -11l3 -7 -7 4 4 3zm2 11l11 -16 5 3c2,1 3,2 3,2 1,1 1,2 1,3 0,1 0,3 -1,4 -1,1 -1,2 -2,2 -1,1 -2,1 -3,1 0,0 -1,0 -2,0 0,0 -1,-1 -3,-2l-2 -1 -4 6 -3 -2zm12 -11l-3 4 2 1c1,1 2,1 2,1 1,1 1,0 2,0 0,0 1,0 1,-1 0,-1 0,-1 0,-2 0,0 0,-1 0,-1 0,-1 -1,-1 -2,-2l-2 0zm12 3l3 1 -5 10c-1,1 -1,2 -2,3 0,1 0,1 0,2 1,1 1,2 2,2 1,0 2,1 3,0 0,0 1,0 1,-1 1,0 1,-1 2,-2l5 -10 4 1 -6 10c-1,2 -2,3 -2,4 -1,1 -2,1 -2,2 -1,0 -2,0 -3,0 -1,0 -2,0 -4,-1 -1,-1 -2,-1 -2,-3 -1,0 -2,-1 -2,-2 0,-1 0,-1 1,-2 0,-1 1,-3 2,-5l5 -9zm6 25l8 -18 7 3c2,1 3,1 4,2 1,1 1,2 1,3 0,1 0,2 0,3 -1,1 -2,2 -3,3 -1,0 -3,0 -4,0 0,1 1,2 1,2 0,1 0,2 0,4l1 4 -4 -1 0 -5c-1,-2 -1,-3 -1,-4 0,0 -1,0 -1,-1 0,0 -1,0 -2,0l0 -1 -4 8 -3 -2zm8 -9l3 1c1,1 2,1 3,1 0,0 0,0 1,0 0,0 1,-1 1,-2 0,0 0,-1 0,-1 0,0 0,-1 -1,-1 0,-1 -1,-1 -2,-1l-3 -2 -2 5zm24 21l-3 -1 -1 -5 -6 -2 -3 4 -4 -2 13 -16 3 1 1 21zm-4 -10l0 -7 -4 6 4 1zm13 12l3 -20 3 1 5 14 3 -13 3 0 -4 20 -3 -1 -5 -14 -2 13 -3 0zm26 -5l0 -3 8 1 0 8c-1,1 -2,1 -4,2 -1,0 -3,1 -4,0 -2,0 -4,-1 -5,-1 -1,-2 -2,-3 -3,-5 -1,-1 -1,-3 -1,-5 1,-2 1,-4 2,-5 1,-2 2,-3 4,-4 1,0 3,-1 4,0 3,0 4,1 5,2 2,1 2,2 2,4l-3 1c-1,-1 -1,-2 -1,-3 -1,0 -2,-1 -3,-1 -2,0 -3,1 -4,1 -1,2 -2,3 -2,5 0,3 0,5 1,6 1,1 2,2 4,2 0,0 1,0 2,0 1,-1 2,-1 2,-1l0 -3 -4 -1zm27 8l-4 0 -2 -4 -7 0 -1 4 -4 1 6 -21 4 0 8 20zm-7 -8l-3 -7 -2 7 5 0zm6 -12l6 -1c2,0 3,0 4,0 1,0 2,0 3,1 1,1 2,2 2,3 1,1 1,3 1,5 1,1 1,3 0,4 0,2 0,3 -1,4 -1,1 -1,1 -2,2 -1,0 -2,1 -3,1l-7 1 -3 -20zm4 3l2 13 3 0c1,-1 1,-1 2,-1 0,0 1,-1 1,-1 0,0 1,-1 1,-2 0,-1 0,-2 0,-4 -1,-1 -1,-2 -1,-3 0,-1 -1,-2 -2,-2 0,0 -1,0 -1,0 -1,-1 -2,0 -3,0l-2 0zm33 10l-4 1 -3 -4 -7 2 0 5 -4 0 2 -20 4 -1 12 17zm-9 -6l-4 -6 -1 8 5 -2zm4 -13l3 -1 3 10c1,2 2,3 2,3 0,1 1,1 2,2 0,0 1,0 2,-1 1,0 2,0 2,-1 0,0 0,-1 0,-2 0,0 0,-1 0,-3l-4 -10 3 -2 4 10c1,3 1,4 1,5 0,1 0,2 0,3 0,1 -1,2 -2,2 0,1 -1,2 -3,2 -1,0 -3,1 -3,0 -2,0 -2,0 -3,0 -1,-1 -1,-2 -2,-2 0,-1 -1,-3 -2,-5l-3 -10zm23 13l-8 -18 3 -2 13 9 -6 -12 3 -1 9 18 -4 2 -12 -9 6 12 -4 1zm23 -11l-11 -17 3 -1 14 7 -8 -11 4 -2 10 17 -3 2 -13 -7 7 10 -3 2zm18 -20l-2 -3 6 -4 5 6c0,1 -1,3 -1,4 -1,1 -2,2 -3,3 -2,1 -4,2 -5,2 -2,0 -3,0 -5,-1 -2,-1 -3,-2 -4,-4 -1,-1 -2,-3 -3,-5 0,-2 0,-3 1,-5 1,-1 1,-2 3,-3 1,-1 3,-2 5,-2 2,0 3,1 4,2l-2 3c-1,-1 -2,-1 -2,-1 -2,0 -2,0 -3,0 -1,2 -2,3 -2,4 0,1 1,3 2,5 1,2 3,3 4,3 2,1 3,0 4,-1 1,0 1,-1 2,-1 0,-1 1,-2 1,-2l-2 -2 -3 2zm6 -8c-1,-1 -2,-3 -3,-4 0,-1 0,-2 0,-3 0,-1 0,-2 0,-3 1,-1 2,-2 2,-3 2,-2 5,-2 7,-2 2,0 5,2 7,4 2,3 3,5 3,7 0,3 -1,5 -3,6 -2,2 -4,3 -6,3 -3,-1 -5,-2 -7,-5zm2 -2c2,2 4,3 5,3 1,0 3,0 4,-1 1,-1 2,-2 1,-4 0,-1 0,-3 -2,-4 -2,-2 -3,-3 -4,-4 -2,0 -3,0 -4,2 -1,0 -2,2 -2,3 0,2 1,3 2,5zm19 -3l-14 -14 5 -6c2,-1 3,-2 4,-2 1,-1 1,-1 3,-1 0,1 2,1 2,2 2,1 2,2 2,3 0,2 0,3 -1,4 1,0 2,0 3,0 0,0 2,1 4,1l4 1 -3 3 -5 -1c-2,0 -3,-1 -4,-1 0,0 -1,0 -1,1 -1,0 -1,0 -1,0l-1 1 6 6 -3 3zm-5 -11l1 -2c2,-1 2,-2 3,-2 0,-1 0,-2 0,-2 -1,0 -1,-1 -1,-1 -1,0 -1,-1 -2,-1 0,0 -1,0 -1,1 0,0 -1,0 -2,1l-2 2 4 4zm28 -14l-2 3 -4 -2 -5 5 2 4 -2 3 -11 -18 2 -3 20 8zm-10 0l-7 -3 4 6 3 -3z"/>
  </g>
 </g>
</svg>
